<svg xmlns="http://www.w3.org/2000/svg" width="48" height="48" viewBox="0 0 48 48">
  <g id="Group_1971" data-name="Group 1971" transform="translate(-20 -20)">
    <circle id="Ellipse_7" data-name="Ellipse 7" cx="24" cy="24" r="24" transform="translate(68 68) rotate(180)" fill="#df686c"/>
    <g id="download" transform="translate(150.698 33.818) rotate(90)">
      <g id="Group_22" data-name="Group 22" transform="translate(0 100.698)">
        <path id="Path_322" data-name="Path 322" d="M19.859,101.694l-.661-.666a1.107,1.107,0,0,0-1.562,0L10.1,108.57l-7.55-7.55a1.107,1.107,0,0,0-1.561,0l-.661.662a1.105,1.105,0,0,0,0,1.561l8.989,9.021a1.128,1.128,0,0,0,.783.354h0a1.128,1.128,0,0,0,.78-.354l8.981-9a1.115,1.115,0,0,0,.323-.789A1.1,1.1,0,0,0,19.859,101.694Z" transform="translate(0 -100.698)" fill="#fff"/>
      </g>
    </g>
  </g>
</svg>
