<svg xmlns="http://www.w3.org/2000/svg" width="28.94" height="28.526" viewBox="0 0 28.94 28.526">
  <g id="noun_order_history_3485551" data-name="noun_order history_3485551" transform="translate(-58.531 -313.737)">
    <g id="Group_2003" data-name="Group 2003" transform="translate(13.546 265.737)">
      <path id="Path_2638" data-name="Path 2638" d="M59.127,75.429H46.753a10.316,10.316,0,0,0,2.213-6.414V49.1h19.09V59.6a.549.549,0,1,0,1.1,0V48.549A.548.548,0,0,0,68.6,48H48.417a.548.548,0,0,0-.549.549V69.015a9.238,9.238,0,0,1-2.723,6.575.549.549,0,0,0,.388.936H59.127a.549.549,0,1,0,0-1.1Z" fill="#fff"/>
      <path id="Path_2639" data-name="Path 2639" d="M155.609,148.766H143.025a.549.549,0,1,0,0,1.1h12.584a.549.549,0,0,0,0-1.1Z" transform="translate(-90.806 -93.856)" fill="#fff"/>
      <path id="Path_2640" data-name="Path 2640" d="M156.158,203.518a.548.548,0,0,0-.549-.549H143.025a.549.549,0,0,0,0,1.1h12.584a.548.548,0,0,0,.549-.549Z" transform="translate(-90.806 -144.342)" fill="#fff"/>
      <path id="Path_2641" data-name="Path 2641" d="M150.689,257.721a.548.548,0,0,0-.549-.549h-7.115a.549.549,0,0,0,0,1.1h7.115A.548.548,0,0,0,150.689,257.721Z" transform="translate(-90.807 -194.829)" fill="#fff"/>
      <path id="Path_2642" data-name="Path 2642" d="M143.026,311.375a.549.549,0,0,0,0,1.1H147.5a.549.549,0,0,0,0-1.1Z" transform="translate(-90.807 -245.315)" fill="#fff"/>
      <path id="Path_2643" data-name="Path 2643" d="M255.146,259.211a7.085,7.085,0,0,0-12,3.8l-.436-.436a.549.549,0,1,0-.776.776l1.262,1.262a.55.55,0,0,0,.776,0l1.263-1.262a.549.549,0,1,0-.776-.776l-.125.125a5.989,5.989,0,1,1,1.554,5.765.549.549,0,0,0-.776.776,7.091,7.091,0,0,0,10.028-10.029Z" transform="translate(-183.299 -194.79)" fill="#fff"/>
      <path id="Path_2644" data-name="Path 2644" d="M356.154,291.32a.548.548,0,0,0-.549.549v4.2a.556.556,0,0,0,.161.388l1.988,1.988a.549.549,0,0,0,.776-.776l-1.828-1.828v-3.974A.548.548,0,0,0,356.154,291.32Z" transform="translate(-289.32 -226.635)" fill="#fff"/>
    </g>
  </g>
</svg>
