<svg id="up-arrow" xmlns="http://www.w3.org/2000/svg" width="16.667" height="20" viewBox="0 0 16.667 20">
  <path id="Path_2623" data-name="Path 2623" d="M21.423,13.589l2.744-2.744V23a.833.833,0,1,0,1.667,0V10.845l2.744,2.744a.833.833,0,1,0,1.178-1.178L25.589,8.244a.833.833,0,0,0-1.178,0l-4.167,4.167a.833.833,0,1,0,1.178,1.178Z" transform="translate(-16.667 -8)" fill="#fff"/>
  <path id="Path_2624" data-name="Path 2624" d="M27.833,40a.834.834,0,0,0-.833.833v3.333a.834.834,0,0,1-.833.833H14.5a.834.834,0,0,1-.833-.833V40.833a.833.833,0,1,0-1.667,0v3.333a2.5,2.5,0,0,0,2.5,2.5H26.167a2.5,2.5,0,0,0,2.5-2.5V40.833A.834.834,0,0,0,27.833,40Z" transform="translate(-12 -26.667)" fill="#fff"/>
</svg>
